(module 8901100177LF (layer F.Cu) (tedit 0)
  (descr 8901-100-177L-F-2)
  (tags Connector)
  (fp_text reference J** (at 31.115 2.705) (layer F.SilkS)
    (effects (font (size 1.27 1.27) (thickness 0.254)))
  )
  (fp_text value 8901100177LF (at 31.115 2.705) (layer F.SilkS) hide
    (effects (font (size 1.27 1.27) (thickness 0.254)))
  )
  (fp_text user %R (at 31.115 2.705) (layer F.Fab)
    (effects (font (size 1.27 1.27) (thickness 0.254)))
  )
  (fp_line (start -7 -2.895) (end 69.23 -2.895) (layer F.Fab) (width 0.2))
  (fp_line (start 69.23 -2.895) (end 69.23 2.905) (layer F.Fab) (width 0.2))
  (fp_line (start 69.23 2.905) (end -7 2.905) (layer F.Fab) (width 0.2))
  (fp_line (start -7 2.905) (end -7 -2.895) (layer F.Fab) (width 0.2))
  (fp_line (start -1.4 2.905) (end 63.63 2.905) (layer F.Fab) (width 0.2))
  (fp_line (start 63.63 2.905) (end 63.63 8.305) (layer F.Fab) (width 0.2))
  (fp_line (start 63.63 8.305) (end -1.4 8.305) (layer F.Fab) (width 0.2))
  (fp_line (start -1.4 8.305) (end -1.4 2.905) (layer F.Fab) (width 0.2))
  (fp_line (start -7 -2.895) (end 69.23 -2.895) (layer F.SilkS) (width 0.1))
  (fp_line (start 69.23 -2.895) (end 69.23 2.905) (layer F.SilkS) (width 0.1))
  (fp_line (start 69.23 2.905) (end -7 2.905) (layer F.SilkS) (width 0.1))
  (fp_line (start -7 2.905) (end -7 -2.895) (layer F.SilkS) (width 0.1))
  (fp_line (start -8 -3.895) (end 70.23 -3.895) (layer F.CrtYd) (width 0.1))
  (fp_line (start 70.23 -3.895) (end 70.23 9.305) (layer F.CrtYd) (width 0.1))
  (fp_line (start 70.23 9.305) (end -8 9.305) (layer F.CrtYd) (width 0.1))
  (fp_line (start -8 9.305) (end -8 -3.895) (layer F.CrtYd) (width 0.1))
  (pad MH2 thru_hole circle (at 66.675 0) (size 3.6 3.6) (drill 2.4) (layers *.Cu *.Mask))
  (pad MH1 thru_hole circle (at -4.445 0) (size 3.6 3.6) (drill 2.4) (layers *.Cu *.Mask))
  (pad 100 thru_hole circle (at 62.23 1.905) (size 1.05 1.05) (drill 0.65) (layers *.Cu *.Mask))
  (pad 99 thru_hole circle (at 62.23 -1.905) (size 1.05 1.05) (drill 0.65) (layers *.Cu *.Mask))
  (pad 98 thru_hole circle (at 60.96 1.905) (size 1.05 1.05) (drill 0.65) (layers *.Cu *.Mask))
  (pad 97 thru_hole circle (at 60.96 0) (size 1.05 1.05) (drill 0.65) (layers *.Cu *.Mask))
  (pad 96 thru_hole circle (at 59.69 1.905) (size 1.05 1.05) (drill 0.65) (layers *.Cu *.Mask))
  (pad 95 thru_hole circle (at 59.69 -1.905) (size 1.05 1.05) (drill 0.65) (layers *.Cu *.Mask))
  (pad 94 thru_hole circle (at 58.42 1.905) (size 1.05 1.05) (drill 0.65) (layers *.Cu *.Mask))
  (pad 93 thru_hole circle (at 58.42 0) (size 1.05 1.05) (drill 0.65) (layers *.Cu *.Mask))
  (pad 92 thru_hole circle (at 57.15 1.905) (size 1.05 1.05) (drill 0.65) (layers *.Cu *.Mask))
  (pad 91 thru_hole circle (at 57.15 -1.905) (size 1.05 1.05) (drill 0.65) (layers *.Cu *.Mask))
  (pad 90 thru_hole circle (at 55.88 1.905) (size 1.05 1.05) (drill 0.65) (layers *.Cu *.Mask))
  (pad 89 thru_hole circle (at 55.88 0) (size 1.05 1.05) (drill 0.65) (layers *.Cu *.Mask))
  (pad 88 thru_hole circle (at 54.61 1.905) (size 1.05 1.05) (drill 0.65) (layers *.Cu *.Mask))
  (pad 87 thru_hole circle (at 54.61 -1.905) (size 1.05 1.05) (drill 0.65) (layers *.Cu *.Mask))
  (pad 86 thru_hole circle (at 53.34 1.905) (size 1.05 1.05) (drill 0.65) (layers *.Cu *.Mask))
  (pad 85 thru_hole circle (at 53.34 0) (size 1.05 1.05) (drill 0.65) (layers *.Cu *.Mask))
  (pad 84 thru_hole circle (at 52.07 1.905) (size 1.05 1.05) (drill 0.65) (layers *.Cu *.Mask))
  (pad 83 thru_hole circle (at 52.07 -1.905) (size 1.05 1.05) (drill 0.65) (layers *.Cu *.Mask))
  (pad 82 thru_hole circle (at 50.8 1.905) (size 1.05 1.05) (drill 0.65) (layers *.Cu *.Mask))
  (pad 81 thru_hole circle (at 50.8 0) (size 1.05 1.05) (drill 0.65) (layers *.Cu *.Mask))
  (pad 80 thru_hole circle (at 49.53 1.905) (size 1.05 1.05) (drill 0.65) (layers *.Cu *.Mask))
  (pad 79 thru_hole circle (at 49.53 -1.905) (size 1.05 1.05) (drill 0.65) (layers *.Cu *.Mask))
  (pad 78 thru_hole circle (at 48.26 1.905) (size 1.05 1.05) (drill 0.65) (layers *.Cu *.Mask))
  (pad 77 thru_hole circle (at 48.26 0) (size 1.05 1.05) (drill 0.65) (layers *.Cu *.Mask))
  (pad 76 thru_hole circle (at 46.99 1.905) (size 1.05 1.05) (drill 0.65) (layers *.Cu *.Mask))
  (pad 75 thru_hole circle (at 46.99 -1.905) (size 1.05 1.05) (drill 0.65) (layers *.Cu *.Mask))
  (pad 74 thru_hole circle (at 45.72 1.905) (size 1.05 1.05) (drill 0.65) (layers *.Cu *.Mask))
  (pad 73 thru_hole circle (at 45.72 0) (size 1.05 1.05) (drill 0.65) (layers *.Cu *.Mask))
  (pad 72 thru_hole circle (at 44.45 1.905) (size 1.05 1.05) (drill 0.65) (layers *.Cu *.Mask))
  (pad 71 thru_hole circle (at 44.45 -1.905) (size 1.05 1.05) (drill 0.65) (layers *.Cu *.Mask))
  (pad 70 thru_hole circle (at 43.18 1.905) (size 1.05 1.05) (drill 0.65) (layers *.Cu *.Mask))
  (pad 69 thru_hole circle (at 43.18 0) (size 1.05 1.05) (drill 0.65) (layers *.Cu *.Mask))
  (pad 68 thru_hole circle (at 41.91 1.905) (size 1.05 1.05) (drill 0.65) (layers *.Cu *.Mask))
  (pad 67 thru_hole circle (at 41.91 -1.905) (size 1.05 1.05) (drill 0.65) (layers *.Cu *.Mask))
  (pad 66 thru_hole circle (at 40.64 1.905) (size 1.05 1.05) (drill 0.65) (layers *.Cu *.Mask))
  (pad 65 thru_hole circle (at 40.64 0) (size 1.05 1.05) (drill 0.65) (layers *.Cu *.Mask))
  (pad 64 thru_hole circle (at 39.37 1.905) (size 1.05 1.05) (drill 0.65) (layers *.Cu *.Mask))
  (pad 63 thru_hole circle (at 39.37 -1.905) (size 1.05 1.05) (drill 0.65) (layers *.Cu *.Mask))
  (pad 62 thru_hole circle (at 38.1 1.905) (size 1.05 1.05) (drill 0.65) (layers *.Cu *.Mask))
  (pad 61 thru_hole circle (at 38.1 0) (size 1.05 1.05) (drill 0.65) (layers *.Cu *.Mask))
  (pad 60 thru_hole circle (at 36.83 1.905) (size 1.05 1.05) (drill 0.65) (layers *.Cu *.Mask))
  (pad 59 thru_hole circle (at 36.83 -1.905) (size 1.05 1.05) (drill 0.65) (layers *.Cu *.Mask))
  (pad 58 thru_hole circle (at 35.56 1.905) (size 1.05 1.05) (drill 0.65) (layers *.Cu *.Mask))
  (pad 57 thru_hole circle (at 35.56 0) (size 1.05 1.05) (drill 0.65) (layers *.Cu *.Mask))
  (pad 56 thru_hole circle (at 34.29 1.905) (size 1.05 1.05) (drill 0.65) (layers *.Cu *.Mask))
  (pad 55 thru_hole circle (at 34.29 -1.905) (size 1.05 1.05) (drill 0.65) (layers *.Cu *.Mask))
  (pad 54 thru_hole circle (at 33.02 1.905) (size 1.05 1.05) (drill 0.65) (layers *.Cu *.Mask))
  (pad 53 thru_hole circle (at 33.02 0) (size 1.05 1.05) (drill 0.65) (layers *.Cu *.Mask))
  (pad 52 thru_hole circle (at 31.75 1.905) (size 1.05 1.05) (drill 0.65) (layers *.Cu *.Mask))
  (pad 51 thru_hole circle (at 31.75 -1.905) (size 1.05 1.05) (drill 0.65) (layers *.Cu *.Mask))
  (pad 50 thru_hole circle (at 30.48 1.905) (size 1.05 1.05) (drill 0.65) (layers *.Cu *.Mask))
  (pad 49 thru_hole circle (at 30.48 0) (size 1.05 1.05) (drill 0.65) (layers *.Cu *.Mask))
  (pad 48 thru_hole circle (at 29.21 1.905) (size 1.05 1.05) (drill 0.65) (layers *.Cu *.Mask))
  (pad 47 thru_hole circle (at 29.21 -1.905) (size 1.05 1.05) (drill 0.65) (layers *.Cu *.Mask))
  (pad 46 thru_hole circle (at 27.94 1.905) (size 1.05 1.05) (drill 0.65) (layers *.Cu *.Mask))
  (pad 45 thru_hole circle (at 27.94 0) (size 1.05 1.05) (drill 0.65) (layers *.Cu *.Mask))
  (pad 44 thru_hole circle (at 26.67 1.905) (size 1.05 1.05) (drill 0.65) (layers *.Cu *.Mask))
  (pad 43 thru_hole circle (at 26.67 -1.905) (size 1.05 1.05) (drill 0.65) (layers *.Cu *.Mask))
  (pad 42 thru_hole circle (at 25.4 1.905) (size 1.05 1.05) (drill 0.65) (layers *.Cu *.Mask))
  (pad 41 thru_hole circle (at 25.4 0) (size 1.05 1.05) (drill 0.65) (layers *.Cu *.Mask))
  (pad 40 thru_hole circle (at 24.13 1.905) (size 1.05 1.05) (drill 0.65) (layers *.Cu *.Mask))
  (pad 39 thru_hole circle (at 24.13 -1.905) (size 1.05 1.05) (drill 0.65) (layers *.Cu *.Mask))
  (pad 38 thru_hole circle (at 22.86 1.905) (size 1.05 1.05) (drill 0.65) (layers *.Cu *.Mask))
  (pad 37 thru_hole circle (at 22.86 0) (size 1.05 1.05) (drill 0.65) (layers *.Cu *.Mask))
  (pad 36 thru_hole circle (at 21.59 1.905) (size 1.05 1.05) (drill 0.65) (layers *.Cu *.Mask))
  (pad 35 thru_hole circle (at 21.59 -1.905) (size 1.05 1.05) (drill 0.65) (layers *.Cu *.Mask))
  (pad 34 thru_hole circle (at 20.32 1.905) (size 1.05 1.05) (drill 0.65) (layers *.Cu *.Mask))
  (pad 33 thru_hole circle (at 20.32 0) (size 1.05 1.05) (drill 0.65) (layers *.Cu *.Mask))
  (pad 32 thru_hole circle (at 19.05 1.905) (size 1.05 1.05) (drill 0.65) (layers *.Cu *.Mask))
  (pad 31 thru_hole circle (at 19.05 -1.905) (size 1.05 1.05) (drill 0.65) (layers *.Cu *.Mask))
  (pad 30 thru_hole circle (at 17.78 1.905) (size 1.05 1.05) (drill 0.65) (layers *.Cu *.Mask))
  (pad 29 thru_hole circle (at 17.78 0) (size 1.05 1.05) (drill 0.65) (layers *.Cu *.Mask))
  (pad 28 thru_hole circle (at 16.51 1.905) (size 1.05 1.05) (drill 0.65) (layers *.Cu *.Mask))
  (pad 27 thru_hole circle (at 16.51 -1.905) (size 1.05 1.05) (drill 0.65) (layers *.Cu *.Mask))
  (pad 26 thru_hole circle (at 15.24 1.905) (size 1.05 1.05) (drill 0.65) (layers *.Cu *.Mask))
  (pad 25 thru_hole circle (at 15.24 0) (size 1.05 1.05) (drill 0.65) (layers *.Cu *.Mask))
  (pad 24 thru_hole circle (at 13.97 1.905) (size 1.05 1.05) (drill 0.65) (layers *.Cu *.Mask))
  (pad 23 thru_hole circle (at 13.97 -1.905) (size 1.05 1.05) (drill 0.65) (layers *.Cu *.Mask))
  (pad 22 thru_hole circle (at 12.7 1.905) (size 1.05 1.05) (drill 0.65) (layers *.Cu *.Mask))
  (pad 21 thru_hole circle (at 12.7 0) (size 1.05 1.05) (drill 0.65) (layers *.Cu *.Mask))
  (pad 20 thru_hole circle (at 11.43 1.905) (size 1.05 1.05) (drill 0.65) (layers *.Cu *.Mask))
  (pad 19 thru_hole circle (at 11.43 -1.905) (size 1.05 1.05) (drill 0.65) (layers *.Cu *.Mask))
  (pad 18 thru_hole circle (at 10.16 1.905) (size 1.05 1.05) (drill 0.65) (layers *.Cu *.Mask))
  (pad 17 thru_hole circle (at 10.16 0) (size 1.05 1.05) (drill 0.65) (layers *.Cu *.Mask))
  (pad 16 thru_hole circle (at 8.89 1.905) (size 1.05 1.05) (drill 0.65) (layers *.Cu *.Mask))
  (pad 15 thru_hole circle (at 8.89 -1.905) (size 1.05 1.05) (drill 0.65) (layers *.Cu *.Mask))
  (pad 14 thru_hole circle (at 7.62 1.905) (size 1.05 1.05) (drill 0.65) (layers *.Cu *.Mask))
  (pad 13 thru_hole circle (at 7.62 0) (size 1.05 1.05) (drill 0.65) (layers *.Cu *.Mask))
  (pad 12 thru_hole circle (at 6.35 1.905) (size 1.05 1.05) (drill 0.65) (layers *.Cu *.Mask))
  (pad 11 thru_hole circle (at 6.35 -1.905) (size 1.05 1.05) (drill 0.65) (layers *.Cu *.Mask))
  (pad 10 thru_hole circle (at 5.08 1.905) (size 1.05 1.05) (drill 0.65) (layers *.Cu *.Mask))
  (pad 9 thru_hole circle (at 5.08 0) (size 1.05 1.05) (drill 0.65) (layers *.Cu *.Mask))
  (pad 8 thru_hole circle (at 3.81 1.905) (size 1.05 1.05) (drill 0.65) (layers *.Cu *.Mask))
  (pad 7 thru_hole circle (at 3.81 -1.905) (size 1.05 1.05) (drill 0.65) (layers *.Cu *.Mask))
  (pad 6 thru_hole circle (at 2.54 1.905) (size 1.05 1.05) (drill 0.65) (layers *.Cu *.Mask))
  (pad 5 thru_hole circle (at 2.54 0) (size 1.05 1.05) (drill 0.65) (layers *.Cu *.Mask))
  (pad 4 thru_hole circle (at 1.27 1.905) (size 1.05 1.05) (drill 0.65) (layers *.Cu *.Mask))
  (pad 3 thru_hole circle (at 1.27 -1.905) (size 1.05 1.05) (drill 0.65) (layers *.Cu *.Mask))
  (pad 2 thru_hole circle (at 0 1.905) (size 1.05 1.05) (drill 0.65) (layers *.Cu *.Mask))
  (pad 1 thru_hole rect (at 0 0) (size 1.05 1.05) (drill 0.65) (layers *.Cu *.Mask))
  (model 8901-100-177L-F.stp
    (at (xyz 0 0 0))
    (scale (xyz 1 1 1))
    (rotate (xyz 0 0 0))
  )
)
