(footprint "displayport" (version 20221018) (generator pcbnew)
  (layer "F.Cu")
  (descr "47272-0024")
  (tags "Connector")
  (attr through_hole)
  (fp_text reference "J**" (at 0 0) (layer "F.SilkS")
      (effects (font (size 1.27 1.27) (thickness 0.254)))
    (tstamp 461a32a2-b2de-4b20-a2b3-8927609df324)
  )
  (fp_text value "displayport" (at 0 0) (layer "F.SilkS") hide
      (effects (font (size 1.27 1.27) (thickness 0.254)))
    (tstamp 8ddac91a-ea84-4cb9-808f-7aa73f2efa90)
  )
  (fp_text user "${REFERENCE}" (at 0 0) (layer "F.Fab")
      (effects (font (size 1.27 1.27) (thickness 0.254)))
    (tstamp 813840eb-a149-4fc3-a272-b4cb7c28873f)
  )
  (fp_line (start -8.45 -5.9) (end -5 -5.9)
    (stroke (width 0.1) (type solid)) (layer "F.SilkS") (tstamp 0cab5e4a-cf7a-4f41-8747-5be1b1a2386e))
  (fp_line (start -8.45 5.1) (end -8.45 8.1)
    (stroke (width 0.1) (type solid)) (layer "F.SilkS") (tstamp 209785a4-b2ee-43da-bbfa-e0034748cc51))
  (fp_line (start -8.45 8.1) (end 8.45 8.1)
    (stroke (width 0.1) (type solid)) (layer "F.SilkS") (tstamp 2e450209-c054-44a0-8d53-ecf50920ce7b))
  (fp_line (start 5.4 -8) (end 5.4 -8)
    (stroke (width 0.2) (type solid)) (layer "F.SilkS") (tstamp 6554b966-f992-4cdd-93b9-e06593cc698a))
  (fp_line (start 5.6 -8) (end 5.6 -8)
    (stroke (width 0.2) (type solid)) (layer "F.SilkS") (tstamp f2f82dfa-c361-4430-a679-82cecdc2cf0f))
  (fp_line (start 8.45 -5.9) (end 5.6 -5.9)
    (stroke (width 0.1) (type solid)) (layer "F.SilkS") (tstamp def8e366-1485-4ab8-8a26-c21b4d06e7e2))
  (fp_line (start 8.45 8.1) (end 8.45 5.1)
    (stroke (width 0.1) (type solid)) (layer "F.SilkS") (tstamp 36105f03-eaff-4db0-9e6e-6cb2326f59af))
  (fp_arc (start 5.4 -8) (mid 5.5 -8.1) (end 5.6 -8)
    (stroke (width 0.2) (type solid)) (layer "F.SilkS") (tstamp 0f337cea-012d-4701-af1e-ac335955e808))
  (fp_arc (start 5.6 -8) (mid 5.5 -7.9) (end 5.4 -8)
    (stroke (width 0.2) (type solid)) (layer "F.SilkS") (tstamp 11037fec-6424-4a7b-9566-4f1e0a67189e))
  (fp_line (start -10.58 -9.1) (end 10.58 -9.1)
    (stroke (width 0.1) (type solid)) (layer "F.CrtYd") (tstamp 5c388584-be5a-43d0-8e47-133d3602b899))
  (fp_line (start -10.58 9.1) (end -10.58 -9.1)
    (stroke (width 0.1) (type solid)) (layer "F.CrtYd") (tstamp c7849077-4718-4233-8820-a83f65373cc8))
  (fp_line (start 10.58 -9.1) (end 10.58 9.1)
    (stroke (width 0.1) (type solid)) (layer "F.CrtYd") (tstamp d420bb37-87fb-4165-bf33-f1680163e5c2))
  (fp_line (start 10.58 9.1) (end -10.58 9.1)
    (stroke (width 0.1) (type solid)) (layer "F.CrtYd") (tstamp 7cc96c7b-398b-4c75-9c5d-3f7c0daa4f50))
  (fp_line (start -8.45 -5.9) (end 8.45 -5.9)
    (stroke (width 0.2) (type solid)) (layer "F.Fab") (tstamp bb5dd0de-8572-4b63-991b-f2ea60a71ac3))
  (fp_line (start -8.45 8.1) (end -8.45 -5.9)
    (stroke (width 0.2) (type solid)) (layer "F.Fab") (tstamp 85844684-d764-42fb-ab85-1fc0feadf2f5))
  (fp_line (start 8.45 -5.9) (end 8.45 8.1)
    (stroke (width 0.2) (type solid)) (layer "F.Fab") (tstamp b52d5a3a-6695-4d26-9037-140ecb48df26))
  (fp_line (start 8.45 8.1) (end -8.45 8.1)
    (stroke (width 0.2) (type solid)) (layer "F.Fab") (tstamp 50823a9f-239a-440c-8edb-574f00e11cfd))
  (pad "" np_thru_hole circle (at 0 3.8) (size 0.001 0.001) (drill 1.45) (layers "*.Cu" "*.Mask") (tstamp 772fad37-7486-4c9a-a88c-8a2c938f740d))
  (pad "1" smd rect (at 5.5 -6.36) (size 0.28 2.4) (layers "F.Cu" "F.Paste" "F.Mask") (tstamp b643e44e-1c6b-441d-b1a1-cd13cd97ff7f))
  (pad "2" smd rect (at 5 -6.36) (size 0.28 2.4) (layers "F.Cu" "F.Paste" "F.Mask") (tstamp a484975e-42fd-4e41-884f-282fb56b138b))
  (pad "3" smd rect (at 4.5 -6.36) (size 0.28 2.4) (layers "F.Cu" "F.Paste" "F.Mask") (tstamp d1fb6110-0571-4653-9e42-549e0d7aa362))
  (pad "4" smd rect (at 4 -6.36) (size 0.28 2.4) (layers "F.Cu" "F.Paste" "F.Mask") (tstamp 7aacf274-5818-42e3-8216-e3360e014719))
  (pad "5" smd rect (at 3.5 -6.36) (size 0.28 2.4) (layers "F.Cu" "F.Paste" "F.Mask") (tstamp 4d54e907-129e-487a-b7cd-0e6dbb9b7718))
  (pad "6" smd rect (at 3 -6.36) (size 0.28 2.4) (layers "F.Cu" "F.Paste" "F.Mask") (tstamp e733a032-e6c3-4cbb-bc7e-55c426eac4fa))
  (pad "7" smd rect (at 2.5 -6.36) (size 0.28 2.4) (layers "F.Cu" "F.Paste" "F.Mask") (tstamp 7fb44d43-9a40-4349-bb7e-e86ab5104cd9))
  (pad "8" smd rect (at 2 -6.36) (size 0.28 2.4) (layers "F.Cu" "F.Paste" "F.Mask") (tstamp dc2fd699-7005-4e7c-b757-7dc37074c27f))
  (pad "9" smd rect (at 1.5 -6.36) (size 0.28 2.4) (layers "F.Cu" "F.Paste" "F.Mask") (tstamp 91a0f223-a6ea-499c-bc91-c33c8b6d658a))
  (pad "10" smd rect (at 1 -6.36) (size 0.28 2.4) (layers "F.Cu" "F.Paste" "F.Mask") (tstamp da0c6d58-ae61-487d-a606-423009add342))
  (pad "11" smd rect (at 0.5 -6.36) (size 0.28 2.4) (layers "F.Cu" "F.Paste" "F.Mask") (tstamp 0950a307-1bc0-49cb-89f8-93e12de562e9))
  (pad "12" smd rect (at 0 -6.36) (size 0.28 2.4) (layers "F.Cu" "F.Paste" "F.Mask") (tstamp 6987eb61-7d5f-462d-9b46-fbc8989238d5))
  (pad "13" smd rect (at -0.5 -6.36) (size 0.28 2.4) (layers "F.Cu" "F.Paste" "F.Mask") (tstamp 08cfd194-d53a-4b1d-8e2d-68fbeab24daf))
  (pad "14" smd rect (at -1 -6.36) (size 0.28 2.4) (layers "F.Cu" "F.Paste" "F.Mask") (tstamp 9636799d-4f2a-4e2a-82f2-e324e05f4342))
  (pad "15" smd rect (at -1.5 -6.36) (size 0.28 2.4) (layers "F.Cu" "F.Paste" "F.Mask") (tstamp e6619ced-535b-4fbe-9adf-92f0dcdcd89e))
  (pad "16" smd rect (at -2 -6.36) (size 0.28 2.4) (layers "F.Cu" "F.Paste" "F.Mask") (tstamp 40727bca-5c2c-4014-9ebd-395cd34b179e))
  (pad "17" smd rect (at -2.5 -6.36) (size 0.28 2.4) (layers "F.Cu" "F.Paste" "F.Mask") (tstamp 19ce6817-5453-47aa-8da7-0a0ad361cb61))
  (pad "18" smd rect (at -3 -6.36) (size 0.28 2.4) (layers "F.Cu" "F.Paste" "F.Mask") (tstamp 45b77eed-8cb6-4cf5-b547-8b610761e749))
  (pad "19" smd rect (at -3.5 -6.36) (size 0.28 2.4) (layers "F.Cu" "F.Paste" "F.Mask") (tstamp 2f9d792d-55a3-4c53-9053-2c28e20ae9b0))
  (pad "20" smd rect (at -4 -6.36) (size 0.28 2.4) (layers "F.Cu" "F.Paste" "F.Mask") (tstamp fa6a5daf-05c6-4814-932e-9986c90ed8cd))
  (pad "MH1" thru_hole oval (at -8.25 -3.76) (size 1.2 2.4) (drill oval 0.7 1.77) (layers "*.Cu" "*.Mask") (tstamp 59caf06f-7daa-4cb5-bf29-ed68af032d81))
  (pad "MH2" thru_hole oval (at -8.25 3.02) (size 1.2 1.982) (drill oval 0.6 1.321) (layers "*.Cu" "*.Mask") (tstamp 3a55e044-308a-4282-ba8e-bb228c3e580a))
  (pad "MH3" thru_hole oval (at 8.25 3.02) (size 1.2 1.982) (drill oval 0.6 1.321) (layers "*.Cu" "*.Mask") (tstamp 74388e54-33b7-4cc0-9a1f-26c3966f490c))
  (pad "MH4" thru_hole oval (at 8.25 -3.76) (size 1.2 2.4) (drill oval 0.6 1.7734) (layers "*.Cu" "*.Mask") (tstamp 1788b1a6-c779-434f-b3cd-45a787a62ec6))
  (model "47272-0024.stp"
    (offset (xyz 0 -7.449999697 3.499999947))
    (scale (xyz 1 1 1))
    (rotate (xyz -90 0 0))
  )
  (model "${KIPRJMOD}/lib/dmaps_components/dmaps_components.3dshapes/displayport.stp"
    (offset (xyz 0 -7.5 3.5))
    (scale (xyz 1 1 1))
    (rotate (xyz -90 0 0))
  )
)
