(footprint "SolderJumper_array_5" (version 20221018) (generator pcbnew)
  (layer "F.Cu")
  (property "Sheetfile" "TelePix_ChipCarrier.kicad_sch")
  (property "Sheetname" "")
  (property "ki_description" "Generic connector, double row, 02x05, odd/even pin numbering scheme (row 1 odd numbers, row 2 even numbers), script generated (kicad-library-utils/schlib/autogen/connector/)")
  (property "ki_keywords" "connector")
  (attr smd)
  (fp_text reference "J6" (at 0 -0.5 unlocked) (layer "F.SilkS") hide
      (effects (font (size 1 1) (thickness 0.15)))
    (tstamp 6f829969-7363-45dc-8a6b-ea2105673d88)
  )
  (fp_text value "Conn_02x05_Odd_Even" (at 0 1 unlocked) (layer "F.Fab")
      (effects (font (size 1 1) (thickness 0.15)))
    (tstamp d6971b13-3001-4f8a-91e5-40e2e0da671f)
  )
  (fp_text user "${REFERENCE}" (at 10.09 -8.16 unlocked) (layer "F.Fab")
      (effects (font (size 1 1) (thickness 0.15)))
    (tstamp 44810b03-aa65-497b-88a8-44d8ab77dff1)
  )
  (fp_text user "${REFERENCE}" (at 0 2.5 unlocked) (layer "F.Fab")
      (effects (font (size 1 1) (thickness 0.15)))
    (tstamp c9ee2ae3-6318-4e5a-858d-bed2e4ffc4d3)
  )
  (fp_line (start -1.43 -14.53) (end -1.43 -15.13)
    (stroke (width 0.12) (type solid)) (layer "F.SilkS") (tstamp a24a9290-5a3a-4c9a-a688-c283e6fddb9a))
  (fp_line (start -1.43 -11.97) (end -1.43 -12.57)
    (stroke (width 0.12) (type solid)) (layer "F.SilkS") (tstamp 9fc9b062-32fc-4db7-b07b-9dcd00082e52))
  (fp_line (start -1.43 -9.47) (end -1.43 -10.07)
    (stroke (width 0.12) (type solid)) (layer "F.SilkS") (tstamp 1fef0ee4-4763-4ae2-ae30-5a521fbc42bc))
  (fp_line (start -1.43 -6.97) (end -1.43 -7.57)
    (stroke (width 0.12) (type solid)) (layer "F.SilkS") (tstamp 758d2707-f3c7-47a7-b3c1-93dcedb936cd))
  (fp_line (start -1.43 -4.47) (end -1.43 -5.07)
    (stroke (width 0.12) (type solid)) (layer "F.SilkS") (tstamp 344fb4e3-92c0-43c1-975c-f3c8b54c13af))
  (fp_line (start -0.73 -15.83) (end 0.67 -15.83)
    (stroke (width 0.12) (type solid)) (layer "F.SilkS") (tstamp f4ce14bd-e136-4b9a-88ff-5d2d8e0b525f))
  (fp_line (start -0.73 -13.27) (end 0.67 -13.27)
    (stroke (width 0.12) (type solid)) (layer "F.SilkS") (tstamp 9d90aae4-0798-40ba-b80f-9ed426590405))
  (fp_line (start -0.73 -10.77) (end 0.67 -10.77)
    (stroke (width 0.12) (type solid)) (layer "F.SilkS") (tstamp a118295c-221f-4d12-bb4a-134a92ecbf2d))
  (fp_line (start -0.73 -8.27) (end 0.67 -8.27)
    (stroke (width 0.12) (type solid)) (layer "F.SilkS") (tstamp c7f5e8e9-25e7-4289-9ada-7c6707bf15be))
  (fp_line (start -0.73 -5.77) (end 0.67 -5.77)
    (stroke (width 0.12) (type solid)) (layer "F.SilkS") (tstamp 72201fa2-3043-486c-a24f-695ca0cde7ce))
  (fp_line (start 0.67 -13.83) (end -0.73 -13.83)
    (stroke (width 0.12) (type solid)) (layer "F.SilkS") (tstamp e0286710-4c27-4629-b877-7203c3fc1fa2))
  (fp_line (start 0.67 -11.27) (end -0.73 -11.27)
    (stroke (width 0.12) (type solid)) (layer "F.SilkS") (tstamp 988afc16-2581-4301-bb1c-720bcb53862c))
  (fp_line (start 0.67 -8.77) (end -0.73 -8.77)
    (stroke (width 0.12) (type solid)) (layer "F.SilkS") (tstamp 7841bdf5-9aa3-4851-a88b-db969372ee8f))
  (fp_line (start 0.67 -6.27) (end -0.73 -6.27)
    (stroke (width 0.12) (type solid)) (layer "F.SilkS") (tstamp b9e699fb-8502-45f0-969e-434903a0d528))
  (fp_line (start 0.67 -3.77) (end -0.73 -3.77)
    (stroke (width 0.12) (type solid)) (layer "F.SilkS") (tstamp d875a99b-7cb3-4e9c-af9b-60f334c198aa))
  (fp_line (start 1.37 -15.13) (end 1.37 -14.53)
    (stroke (width 0.12) (type solid)) (layer "F.SilkS") (tstamp b433adcb-b632-4b6d-ab3c-7070a8661231))
  (fp_line (start 1.37 -12.57) (end 1.37 -11.97)
    (stroke (width 0.12) (type solid)) (layer "F.SilkS") (tstamp b03fe07b-d181-437c-9452-d1b0b79f7bd3))
  (fp_line (start 1.37 -10.07) (end 1.37 -9.47)
    (stroke (width 0.12) (type solid)) (layer "F.SilkS") (tstamp 8c228329-66bf-46d3-91a3-a9dd8cd63678))
  (fp_line (start 1.37 -7.57) (end 1.37 -6.97)
    (stroke (width 0.12) (type solid)) (layer "F.SilkS") (tstamp 467f9759-3cc9-4459-ba4e-334d24e6b5b5))
  (fp_line (start 1.37 -5.07) (end 1.37 -4.47)
    (stroke (width 0.12) (type solid)) (layer "F.SilkS") (tstamp be27405f-8e8e-4105-afe4-0d40ca5df3a9))
  (fp_arc (start -1.43 -15.13) (mid -1.224975 -15.624975) (end -0.73 -15.83)
    (stroke (width 0.12) (type solid)) (layer "F.SilkS") (tstamp e6ad03bd-3aca-44ec-9473-047281e95563))
  (fp_arc (start -1.43 -12.57) (mid -1.224975 -13.064975) (end -0.73 -13.27)
    (stroke (width 0.12) (type solid)) (layer "F.SilkS") (tstamp 4a62117d-301e-4a91-9af6-2782ede61a6e))
  (fp_arc (start -1.43 -10.07) (mid -1.224975 -10.564975) (end -0.73 -10.77)
    (stroke (width 0.12) (type solid)) (layer "F.SilkS") (tstamp 42993fe2-fd48-4456-8707-4ff9f4fde89e))
  (fp_arc (start -1.43 -7.57) (mid -1.224975 -8.064975) (end -0.73 -8.27)
    (stroke (width 0.12) (type solid)) (layer "F.SilkS") (tstamp 66f7ca3a-65ee-4d0e-8aba-8dd2a4a3634b))
  (fp_arc (start -1.43 -5.07) (mid -1.224975 -5.564975) (end -0.73 -5.77)
    (stroke (width 0.12) (type solid)) (layer "F.SilkS") (tstamp 16568dec-a10c-416e-adbe-de605fc36fa7))
  (fp_arc (start -0.73 -13.83) (mid -1.224975 -14.035025) (end -1.43 -14.53)
    (stroke (width 0.12) (type solid)) (layer "F.SilkS") (tstamp 3d2a3aac-9e0d-42b8-b3fc-b8c1c397f492))
  (fp_arc (start -0.73 -11.27) (mid -1.224975 -11.475025) (end -1.43 -11.97)
    (stroke (width 0.12) (type solid)) (layer "F.SilkS") (tstamp 614dbe1e-f101-4ef0-885f-fe0dbc975aad))
  (fp_arc (start -0.73 -8.77) (mid -1.224975 -8.975025) (end -1.43 -9.47)
    (stroke (width 0.12) (type solid)) (layer "F.SilkS") (tstamp 3d6bcc1b-6873-48b5-9fec-0fe9e298d559))
  (fp_arc (start -0.73 -6.27) (mid -1.224975 -6.475025) (end -1.43 -6.97)
    (stroke (width 0.12) (type solid)) (layer "F.SilkS") (tstamp 2e24b905-a6cc-46d2-96e0-3d4578e1ca61))
  (fp_arc (start -0.73 -3.77) (mid -1.224975 -3.975025) (end -1.43 -4.47)
    (stroke (width 0.12) (type solid)) (layer "F.SilkS") (tstamp f4eff6eb-9ac8-4ebc-816a-47a64e582412))
  (fp_arc (start 0.67 -15.83) (mid 1.164975 -15.624975) (end 1.37 -15.13)
    (stroke (width 0.12) (type solid)) (layer "F.SilkS") (tstamp 8d8d35c3-e619-4609-8e9d-9b311eaa4b5f))
  (fp_arc (start 0.67 -13.27) (mid 1.164975 -13.064975) (end 1.37 -12.57)
    (stroke (width 0.12) (type solid)) (layer "F.SilkS") (tstamp c4b44a35-4804-400c-84e5-97c13e092b92))
  (fp_arc (start 0.67 -10.77) (mid 1.164975 -10.564975) (end 1.37 -10.07)
    (stroke (width 0.12) (type solid)) (layer "F.SilkS") (tstamp 9a7eb5b3-b0f6-4a1b-a129-851e1528f04b))
  (fp_arc (start 0.67 -8.27) (mid 1.164975 -8.064975) (end 1.37 -7.57)
    (stroke (width 0.12) (type solid)) (layer "F.SilkS") (tstamp 314259da-d463-4a16-a8a3-86f711fdf0dd))
  (fp_arc (start 0.67 -5.77) (mid 1.164975 -5.564975) (end 1.37 -5.07)
    (stroke (width 0.12) (type solid)) (layer "F.SilkS") (tstamp 4d6c1dc3-5fc1-4536-a7e0-784d40ec6330))
  (fp_arc (start 1.37 -14.53) (mid 1.164975 -14.035025) (end 0.67 -13.83)
    (stroke (width 0.12) (type solid)) (layer "F.SilkS") (tstamp 2b54f75a-5d19-4f84-a2e4-51e0155cdf22))
  (fp_arc (start 1.37 -11.97) (mid 1.164975 -11.475025) (end 0.67 -11.27)
    (stroke (width 0.12) (type solid)) (layer "F.SilkS") (tstamp bffe01c4-a9c9-4097-a848-a83e225a70fe))
  (fp_arc (start 1.37 -9.47) (mid 1.164975 -8.975025) (end 0.67 -8.77)
    (stroke (width 0.12) (type solid)) (layer "F.SilkS") (tstamp c7cf7dab-05b8-4e1b-b0d2-ed5be834b9fc))
  (fp_arc (start 1.37 -6.97) (mid 1.164975 -6.475025) (end 0.67 -6.27)
    (stroke (width 0.12) (type solid)) (layer "F.SilkS") (tstamp 3dd00008-6246-44b2-90f1-6d5527a04629))
  (fp_arc (start 1.37 -4.47) (mid 1.164975 -3.975025) (end 0.67 -3.77)
    (stroke (width 0.12) (type solid)) (layer "F.SilkS") (tstamp 7411bcdf-9aa7-464e-8b42-1973e2bd45b2))
  (fp_line (start -1.68 -16.03) (end 1.62 -16.03)
    (stroke (width 0.05) (type solid)) (layer "F.CrtYd") (tstamp f29115ab-1c39-49b1-adb3-d35491326f54))
  (fp_line (start -1.68 -13.52) (end -1.68 -16.02)
    (stroke (width 0.05) (type solid)) (layer "F.CrtYd") (tstamp 7b898c35-d555-4bf9-92e3-ef14e9110b1c))
  (fp_line (start -1.68 -13.52) (end -1.68 -11.02)
    (stroke (width 0.05) (type solid)) (layer "F.CrtYd") (tstamp 00a8423d-f764-4754-83d3-1adf87685323))
  (fp_line (start -1.68 -11.02) (end -1.68 -8.52)
    (stroke (width 0.05) (type solid)) (layer "F.CrtYd") (tstamp 88abd435-65e5-40b3-8008-8f70c5cc0dd4))
  (fp_line (start -1.68 -8.52) (end -1.68 -6.02)
    (stroke (width 0.05) (type solid)) (layer "F.CrtYd") (tstamp 083fb8d7-b154-46ef-b32c-5cd81957345a))
  (fp_line (start -1.68 -6.02) (end -1.68 -3.52)
    (stroke (width 0.05) (type solid)) (layer "F.CrtYd") (tstamp b2f10aef-8443-4cca-8fe8-818a6678a6e5))
  (fp_line (start 1.62 -13.51) (end 1.62 -16.01)
    (stroke (width 0.05) (type solid)) (layer "F.CrtYd") (tstamp 1a2560b7-b569-4b13-817c-e44550ef82be))
  (fp_line (start 1.62 -11.02) (end 1.62 -13.52)
    (stroke (width 0.05) (type solid)) (layer "F.CrtYd") (tstamp 2cbfd212-36b0-4a67-a476-ad9f9cec3d91))
  (fp_line (start 1.62 -8.52) (end 1.62 -11.02)
    (stroke (width 0.05) (type solid)) (layer "F.CrtYd") (tstamp 9ee017e1-f727-4589-ac79-1d8c365b6f81))
  (fp_line (start 1.62 -6.02) (end 1.62 -8.52)
    (stroke (width 0.05) (type solid)) (layer "F.CrtYd") (tstamp d01e8ccb-2ec2-4e59-8fac-c67f2653f580))
  (fp_line (start 1.62 -3.52) (end -1.68 -3.52)
    (stroke (width 0.05) (type solid)) (layer "F.CrtYd") (tstamp 7170763d-d326-4c86-8456-f281d24c94d3))
  (fp_line (start 1.62 -3.52) (end 1.62 -6.02)
    (stroke (width 0.05) (type solid)) (layer "F.CrtYd") (tstamp aba31e97-9fa2-4c66-9886-ec31a09db628))
  (pad "1" smd custom (at 0.62 -4.77) (size 1 0.5) (layers "F.Cu" "F.Mask")
    (zone_connect 2) (thermal_bridge_angle 45)
    (options (clearance outline) (anchor rect))
    (primitives
      (gr_circle (center 0 0.25) (end 0.5 0.25) (width 0) (fill yes))
      (gr_circle (center 0 -0.25) (end 0.5 -0.25) (width 0) (fill yes))
      (gr_poly
        (pts
          (xy 0 0.75)
          (xy -0.5 0.75)
          (xy -0.5 -0.75)
          (xy 0 -0.75)
        )
        (width 0) (fill yes))
    ) (tstamp 008878e0-0138-4951-bb74-f71b3658c35b))
  (pad "2" smd custom (at -0.68 -4.77) (size 1 0.5) (layers "F.Cu" "F.Mask")
    (zone_connect 2) (thermal_bridge_angle 45)
    (options (clearance outline) (anchor rect))
    (primitives
      (gr_circle (center 0 0.25) (end 0.5 0.25) (width 0) (fill yes))
      (gr_circle (center 0 -0.25) (end 0.5 -0.25) (width 0) (fill yes))
      (gr_poly
        (pts
          (xy 0.5 0.75)
          (xy 0 0.75)
          (xy 0 -0.75)
          (xy 0.5 -0.75)
        )
        (width 0) (fill yes))
    ) (tstamp df143848-0d8a-46df-ba5b-ce2884a9bf94))
  (pad "3" smd custom (at 0.62 -7.27) (size 1 0.5) (layers "F.Cu" "F.Mask")
    (zone_connect 2) (thermal_bridge_angle 45)
    (options (clearance outline) (anchor rect))
    (primitives
      (gr_circle (center 0 0.25) (end 0.5 0.25) (width 0) (fill yes))
      (gr_circle (center 0 -0.25) (end 0.5 -0.25) (width 0) (fill yes))
      (gr_poly
        (pts
          (xy 0 0.75)
          (xy -0.5 0.75)
          (xy -0.5 -0.75)
          (xy 0 -0.75)
        )
        (width 0) (fill yes))
    ) (tstamp 8f8bc804-8356-4ff6-af38-58015aff7d2a))
  (pad "4" smd custom (at -0.68 -7.27) (size 1 0.5) (layers "F.Cu" "F.Mask")
    (zone_connect 2) (thermal_bridge_angle 45)
    (options (clearance outline) (anchor rect))
    (primitives
      (gr_circle (center 0 0.25) (end 0.5 0.25) (width 0) (fill yes))
      (gr_circle (center 0 -0.25) (end 0.5 -0.25) (width 0) (fill yes))
      (gr_poly
        (pts
          (xy 0.5 0.75)
          (xy 0 0.75)
          (xy 0 -0.75)
          (xy 0.5 -0.75)
        )
        (width 0) (fill yes))
    ) (tstamp f20dfcef-d3d5-42e0-a379-6e9443671a17))
  (pad "5" smd custom (at 0.62 -9.77) (size 1 0.5) (layers "F.Cu" "F.Mask")
    (zone_connect 2) (thermal_bridge_angle 45)
    (options (clearance outline) (anchor rect))
    (primitives
      (gr_circle (center 0 0.25) (end 0.5 0.25) (width 0) (fill yes))
      (gr_circle (center 0 -0.25) (end 0.5 -0.25) (width 0) (fill yes))
      (gr_poly
        (pts
          (xy 0 0.75)
          (xy -0.5 0.75)
          (xy -0.5 -0.75)
          (xy 0 -0.75)
        )
        (width 0) (fill yes))
    ) (tstamp a047e60b-0d65-4f7d-a067-44b9c3f7c28d))
  (pad "6" smd custom (at -0.68 -9.77) (size 1 0.5) (layers "F.Cu" "F.Mask")
    (zone_connect 2) (thermal_bridge_angle 45)
    (options (clearance outline) (anchor rect))
    (primitives
      (gr_circle (center 0 0.25) (end 0.5 0.25) (width 0) (fill yes))
      (gr_circle (center 0 -0.25) (end 0.5 -0.25) (width 0) (fill yes))
      (gr_poly
        (pts
          (xy 0.5 0.75)
          (xy 0 0.75)
          (xy 0 -0.75)
          (xy 0.5 -0.75)
        )
        (width 0) (fill yes))
    ) (tstamp 71d601c3-8ddf-4f83-9a1f-0086846250f0))
  (pad "7" smd custom (at 0.62 -12.27) (size 1 0.5) (layers "F.Cu" "F.Mask")
    (zone_connect 2) (thermal_bridge_angle 45)
    (options (clearance outline) (anchor rect))
    (primitives
      (gr_circle (center 0 0.25) (end 0.5 0.25) (width 0) (fill yes))
      (gr_circle (center 0 -0.25) (end 0.5 -0.25) (width 0) (fill yes))
      (gr_poly
        (pts
          (xy 0 0.75)
          (xy -0.5 0.75)
          (xy -0.5 -0.75)
          (xy 0 -0.75)
        )
        (width 0) (fill yes))
    ) (tstamp b633710f-6c91-4f56-bdcf-8904997f7170))
  (pad "8" smd custom (at -0.68 -12.27) (size 1 0.5) (layers "F.Cu" "F.Mask")
    (zone_connect 2) (thermal_bridge_angle 45)
    (options (clearance outline) (anchor rect))
    (primitives
      (gr_circle (center 0 0.25) (end 0.5 0.25) (width 0) (fill yes))
      (gr_circle (center 0 -0.25) (end 0.5 -0.25) (width 0) (fill yes))
      (gr_poly
        (pts
          (xy 0.5 0.75)
          (xy 0 0.75)
          (xy 0 -0.75)
          (xy 0.5 -0.75)
        )
        (width 0) (fill yes))
    ) (tstamp 3bd99874-bd22-4c55-a27d-d8d404667d45))
  (pad "9" smd custom (at 0.62 -14.83) (size 1 0.5) (layers "F.Cu" "F.Mask")
    (zone_connect 2) (thermal_bridge_angle 45)
    (options (clearance outline) (anchor rect))
    (primitives
      (gr_circle (center 0 0.25) (end 0.5 0.25) (width 0) (fill yes))
      (gr_circle (center 0 -0.25) (end 0.5 -0.25) (width 0) (fill yes))
      (gr_poly
        (pts
          (xy 0 0.75)
          (xy -0.5 0.75)
          (xy -0.5 -0.75)
          (xy 0 -0.75)
        )
        (width 0) (fill yes))
    ) (tstamp c41bbf37-6025-4850-a476-9623324dbccf))
  (pad "10" smd custom (at -0.68 -14.83) (size 1 0.5) (layers "F.Cu" "F.Mask")
    (zone_connect 2) (thermal_bridge_angle 45)
    (options (clearance outline) (anchor rect))
    (primitives
      (gr_circle (center 0 0.25) (end 0.5 0.25) (width 0) (fill yes))
      (gr_circle (center 0 -0.25) (end 0.5 -0.25) (width 0) (fill yes))
      (gr_poly
        (pts
          (xy 0.5 0.75)
          (xy 0 0.75)
          (xy 0 -0.75)
          (xy 0.5 -0.75)
        )
        (width 0) (fill yes))
    ) (tstamp 5f00ea26-443c-4b40-85a6-34524e840aa7))
)
