(footprint "SolderJumper-2_P1.3mm_Open_RoundedPad1.0x1.0mm" (version 20210424) (generator pcbnew) (layer "F.Cu")
  (tedit 5B391E66)
  (descr "SMD Solder Jumper, 1x1.5mm, rounded Pads, 0.3mm gap, open")
  (tags "solder jumper open")
  (attr exclude_from_pos_files exclude_from_bom)
  (fp_text reference "REF**" (at 0 -1.8) (layer "F.SilkS")
    (effects (font (size 1 1) (thickness 0.15)))
    (tstamp a5cee9dd-9fe4-46a2-8d37-0144296c3919)
  )
  (fp_text value "SolderJumper-2_P1.3mm_Open_RoundedPad1.0x1.0mm" (at 0 1.9) (layer "F.Fab")
    (effects (font (size 1 1) (thickness 0.15)))
    (tstamp 902dbc98-acb2-4397-857d-c47d68307955)
  )
  (fp_line (start -1.4 0.3) (end -1.4 -0.3) (layer "F.SilkS") (width 0.12) (tstamp 06bdc2d9-af49-4652-9999-724b5f6752ab))
  (fp_line (start -0.7 -1) (end 0.7 -1) (layer "F.SilkS") (width 0.12) (tstamp 21285b15-8ae6-403b-bcf4-13e1c02b8d10))
  (fp_line (start 1.4 -0.3) (end 1.4 0.3) (layer "F.SilkS") (width 0.12) (tstamp 3ab23f2a-c4a8-4c33-a64d-fc5ac33e8fa8))
  (fp_line (start 0.7 1) (end -0.7 1) (layer "F.SilkS") (width 0.12) (tstamp 3e6c6b0a-cd74-4235-bada-7176cb451b70))
  (fp_arc (start 0.7 -0.3) (end 1.4 -0.3) (angle -90) (layer "F.SilkS") (width 0.12) (tstamp 4b677038-bb6e-4552-a743-463de4c34b0e))
  (fp_arc (start -0.7 -0.3) (end -0.7 -1) (angle -90) (layer "F.SilkS") (width 0.12) (tstamp 6826ed97-83d7-4098-b42b-632ce1b58884))
  (fp_arc (start 0.7 0.3) (end 0.7 1) (angle -90) (layer "F.SilkS") (width 0.12) (tstamp c89b7862-c8f1-4821-bfe2-6cbb303990ae))
  (fp_arc (start -0.7 0.3) (end -1.4 0.3) (angle -90) (layer "F.SilkS") (width 0.12) (tstamp ce7a15fc-4a1f-4782-8aae-237681a81e53))
  (fp_line (start -1.65 -1.25) (end -1.65 1.25) (layer "F.CrtYd") (width 0.05) (tstamp 018afd99-7f0f-42c4-a224-bae347ada4c3))
  (fp_line (start 1.65 1.25) (end -1.65 1.25) (layer "F.CrtYd") (width 0.05) (tstamp 7bfa7ebe-541e-400c-9c59-fae3896d6775))
  (fp_line (start -1.65 -1.25) (end 1.65 -1.25) (layer "F.CrtYd") (width 0.05) (tstamp 84237948-e4e1-48af-b5a5-62b981bee912))
  (fp_line (start 1.65 1.25) (end 1.65 -1.25) (layer "F.CrtYd") (width 0.05) (tstamp f1ba253d-64fd-4a53-89b0-1948e110d9e3))
  (pad "1" smd custom locked (at -0.65 0) (size 1 0.5) (layers "F.Cu" "F.Mask")
    (zone_connect 2)
    (options (clearance outline) (anchor rect))
    (primitives
      (gr_circle (center 0 0.25) (end 0.5 0.25) (width 0) (fill yes))
      (gr_circle (center 0 -0.25) (end 0.5 -0.25) (width 0) (fill yes))
      (gr_poly (pts
        (xy 0 -0.75)
        (xy 0.5 -0.75)
        (xy 0.5 0.75)
        (xy 0 0.75)
      ) (width 0) (fill yes))
    ) (tstamp 08199bdb-7618-4810-b269-d66996e38f92))
  (pad "2" smd custom locked (at 0.65 0) (size 1 0.5) (layers "F.Cu" "F.Mask")
    (zone_connect 2)
    (options (clearance outline) (anchor rect))
    (primitives
      (gr_circle (center 0 0.25) (end 0.5 0.25) (width 0) (fill yes))
      (gr_circle (center 0 -0.25) (end 0.5 -0.25) (width 0) (fill yes))
      (gr_poly (pts
        (xy 0 -0.75)
        (xy -0.5 -0.75)
        (xy -0.5 0.75)
        (xy 0 0.75)
      ) (width 0) (fill yes))
    ) (tstamp 3fdf6b2a-b694-4139-9bb9-9af3b2fa3d98))
)
