(footprint "SolderJumper_array" (version 20211014) (generator pcbnew)
  (layer "F.Cu")
  (tedit 0)
  (attr smd)
  (fp_text reference "REF**" (at 0 -0.5 unlocked) (layer "F.SilkS")
    (effects (font (size 1 1) (thickness 0.15)))
    (tstamp 4320c5f0-0afe-4c07-882f-7a911b5e320e)
  )
  (fp_text value "SolderJumper_array" (at 0 1 unlocked) (layer "F.Fab")
    (effects (font (size 1 1) (thickness 0.15)))
    (tstamp 6dae2db7-7d74-4c6e-9ed9-9e71e3af6417)
  )
  (fp_text user "${REFERENCE}" (at 0 2.5 unlocked) (layer "F.Fab")
    (effects (font (size 1 1) (thickness 0.15)))
    (tstamp 197ee857-6d11-4525-878b-0d70fb27cddb)
  )
  (fp_line (start -3.049999 -6.234975) (end -3.049999 -7.434975) (layer "F.SilkS") (width 0.12) (tstamp 18d7fc1a-194a-4aa7-b057-b1aa71f051ff))
  (fp_line (start -2.359999 -8.144975) (end -0.959999 -8.144975) (layer "F.SilkS") (width 0.12) (tstamp 1db559ec-4844-46db-85a7-63f3784fe9be))
  (fp_line (start 1.585025 -13.734975) (end 1.585025 -12.534975) (layer "F.SilkS") (width 0.12) (tstamp 25726372-b191-4c39-88c8-d97e1f972d19))
  (fp_line (start -0.949999 -5.544975) (end -2.349999 -5.544975) (layer "F.SilkS") (width 0.12) (tstamp 4096adfa-cbc4-4f15-a80e-ca1695c234f1))
  (fp_line (start 1.555025 -7.444975) (end 1.555025 -6.244975) (layer "F.SilkS") (width 0.12) (tstamp 441c8fe0-525c-45f4-bee1-6e03ed685695))
  (fp_line (start -2.329999 -14.434975) (end -0.929999 -14.434975) (layer "F.SilkS") (width 0.12) (tstamp 49b50be6-6491-40b6-86e6-2b565f3b44d0))
  (fp_line (start -3.019999 -12.524975) (end -3.019999 -13.724975) (layer "F.SilkS") (width 0.12) (tstamp 57ef6f56-a00a-4fe9-9735-e3103bcf89fc))
  (fp_line (start -2.365024 -11.284976) (end -0.965024 -11.284976) (layer "F.SilkS") (width 0.12) (tstamp 7ca4ffa7-2791-4102-9166-4b90a3fe91bc))
  (fp_line (start 1.555025 -4.244975) (end 1.555025 -3.044975) (layer "F.SilkS") (width 0.12) (tstamp 8053e06a-5fc4-4223-bf67-1b3a63b40653))
  (fp_line (start -0.955024 -8.684976) (end -2.355024 -8.684976) (layer "F.SilkS") (width 0.12) (tstamp 948bd16e-39f7-47ef-996a-0f0535e25df1))
  (fp_line (start -0.949999 -2.344975) (end -2.349999 -2.344975) (layer "F.SilkS") (width 0.12) (tstamp a1956f07-6557-4534-82fc-6748492e4bc7))
  (fp_line (start -3.055024 -9.374976) (end -3.055024 -10.574976) (layer "F.SilkS") (width 0.12) (tstamp a8afd496-425d-4804-8f36-bf70821a39ff))
  (fp_line (start 0.855025 -5.544975) (end -1.004975 -5.544975) (layer "F.SilkS") (width 0.12) (tstamp af362ea2-ccfa-45bc-bf5c-f8cadf390abd))
  (fp_line (start 1.55 -10.584976) (end 1.55 -9.384976) (layer "F.SilkS") (width 0.12) (tstamp b0a8ad31-2205-49f6-820a-56e2499cfa22))
  (fp_line (start 0.85 -8.684976) (end -1.01 -8.684976) (layer "F.SilkS") (width 0.12) (tstamp b16768dd-1b08-45a8-a695-128af4c91c38))
  (fp_line (start -2.359999 -4.944975) (end -0.959999 -4.944975) (layer "F.SilkS") (width 0.12) (tstamp bbc64641-9872-47e8-bda6-86d457617054))
  (fp_line (start -1.035024 -11.284976) (end 0.834976 -11.284976) (layer "F.SilkS") (width 0.12) (tstamp bcf2a6bf-24d6-4c6f-bbd8-58c737002bde))
  (fp_line (start 0.885025 -11.834975) (end -0.974975 -11.834975) (layer "F.SilkS") (width 0.12) (tstamp c4b6e10c-b105-4fd4-bd77-660e931d9332))
  (fp_line (start -1.029999 -8.144975) (end 0.840001 -8.144975) (layer "F.SilkS") (width 0.12) (tstamp d227d642-c889-400c-9b82-1921d21fd125))
  (fp_line (start -1.029999 -4.944975) (end 0.840001 -4.944975) (layer "F.SilkS") (width 0.12) (tstamp d4c0af50-6789-4d6c-9d27-7ae709ebe886))
  (fp_line (start -0.919999 -11.834975) (end -2.319999 -11.834975) (layer "F.SilkS") (width 0.12) (tstamp d8c896ff-f774-45b0-9bea-3588d9d7d455))
  (fp_line (start -0.999999 -14.434975) (end 0.870001 -14.434975) (layer "F.SilkS") (width 0.12) (tstamp f250e3eb-1b7f-4cdb-b5d7-2e4c6cac49e7))
  (fp_line (start 0.855025 -2.344975) (end -1.004975 -2.344975) (layer "F.SilkS") (width 0.12) (tstamp f4a328ef-0958-4d0e-9ef4-709f3aea4588))
  (fp_line (start -3.049999 -3.034975) (end -3.049999 -4.234975) (layer "F.SilkS") (width 0.12) (tstamp f852bf19-b58a-406d-a3f8-3461a238d07c))
  (fp_arc (start 1.555025 -6.244975) (mid 1.35 -5.75) (end 0.855025 -5.544975) (layer "F.SilkS") (width 0.12) (tstamp 0069989b-21af-4b58-88cd-6bf4feee583b))
  (fp_arc (start 1.585025 -12.534975) (mid 1.38 -12.04) (end 0.885025 -11.834975) (layer "F.SilkS") (width 0.12) (tstamp 07798cd9-1bd5-481f-bddc-a7be68a18114))
  (fp_arc (start -2.349999 -2.344975) (mid -2.844975 -2.549999) (end -3.049999 -3.044975) (layer "F.SilkS") (width 0.12) (tstamp 111c2ba0-3264-4d7d-a249-4849f7692dc4))
  (fp_arc (start 0.885025 -14.434975) (mid 1.380001 -14.229951) (end 1.585025 -13.734975) (layer "F.SilkS") (width 0.12) (tstamp 1ddf3387-ff03-464d-b940-968c7a444e4f))
  (fp_arc (start -3.049999 -4.244975) (mid -2.844974 -4.73995) (end -2.349999 -4.944975) (layer "F.SilkS") (width 0.12) (tstamp 2962848c-52b1-4d2d-b787-1a8bcefbfcfe))
  (fp_arc (start 0.85 -11.284976) (mid 1.344976 -11.079952) (end 1.55 -10.584976) (layer "F.SilkS") (width 0.12) (tstamp 55017bcf-691b-4a8f-9f09-c083d5ab724e))
  (fp_arc (start -3.049999 -7.444975) (mid -2.844974 -7.93995) (end -2.349999 -8.144975) (layer "F.SilkS") (width 0.12) (tstamp 5f9f818a-a778-4a47-868c-77e18f558c45))
  (fp_arc (start -2.349999 -5.544975) (mid -2.844975 -5.749999) (end -3.049999 -6.244975) (layer "F.SilkS") (width 0.12) (tstamp 616380a7-a1be-49f0-bb30-05f8cffbe8c3))
  (fp_arc (start 1.55 -9.384976) (mid 1.344975 -8.890001) (end 0.85 -8.684976) (layer "F.SilkS") (width 0.12) (tstamp 683fa758-bfa6-4d13-8b53-2d7de8cec8b0))
  (fp_arc (start -2.319999 -11.834975) (mid -2.814975 -12.039999) (end -3.019999 -12.534975) (layer "F.SilkS") (width 0.12) (tstamp 844a121f-512e-44af-8f8c-85f2e8302b71))
  (fp_arc (start -2.355024 -8.684976) (mid -2.85 -8.89) (end -3.055024 -9.384976) (layer "F.SilkS") (width 0.12) (tstamp b214e30d-371e-40e0-8390-9738a847f12d))
  (fp_arc (start 0.855025 -4.944975) (mid 1.350001 -4.739951) (end 1.555025 -4.244975) (layer "F.SilkS") (width 0.12) (tstamp c2e4a569-1c67-4d23-b566-0272fdd5bbf8))
  (fp_arc (start -3.055024 -10.584976) (mid -2.849999 -11.079951) (end -2.355024 -11.284976) (layer "F.SilkS") (width 0.12) (tstamp e5fe6b5b-1fcf-43ea-b96a-843f45195cac))
  (fp_arc (start 0.855025 -8.144975) (mid 1.350001 -7.939951) (end 1.555025 -7.444975) (layer "F.SilkS") (width 0.12) (tstamp ed3173a2-372c-40b1-973c-16a793059fb9))
  (fp_arc (start 1.555025 -3.044975) (mid 1.35 -2.55) (end 0.855025 -2.344975) (layer "F.SilkS") (width 0.12) (tstamp ee8136d1-31eb-48ec-9dc1-b194a7ab0160))
  (fp_arc (start -3.019999 -13.734975) (mid -2.814974 -14.22995) (end -2.319999 -14.434975) (layer "F.SilkS") (width 0.12) (tstamp efae3c47-9ee6-4243-9d18-fb010512228a))
  (fp_line (start -3.549999 -14.984975) (end 2.100001 -14.984975) (layer "F.CrtYd") (width 0.05) (tstamp 16ad929c-ae9e-4640-aea8-dbae56d5034d))
  (fp_line (start -3.549999 -1.984975) (end 2.100001 -1.984975) (layer "F.CrtYd") (width 0.05) (tstamp 3d874122-7546-4b55-ba43-8988dfdfb86f))
  (fp_line (start 2.100001 -1.984975) (end 2.100001 -14.984975) (layer "F.CrtYd") (width 0.05) (tstamp 529c9989-d25e-40ca-bbf5-25f6b1130678))
  (fp_line (start -3.549999 -1.984975) (end -3.549999 -14.984975) (layer "F.CrtYd") (width 0.05) (tstamp 72c594c2-3d25-4712-b8cf-a5de6b2c6f18))
  (pad "1" smd custom (at 0.250001 -3.634975) (size 1.7 1.7) (layers "F.Cu" "F.Mask")
    (zone_connect 2)
    (options (clearance outline) (anchor rect))
    (primitives
      (gr_circle (center 0 0.25) (end 0.5 0.25) (width 0) (fill yes))
      (gr_circle (center 0 -0.25) (end 0.5 -0.25) (width 0) (fill yes))
      (gr_poly (pts
          (xy 0 -0.75)
          (xy -0.5 -0.75)
          (xy -0.5 0.75)
          (xy 0 0.75)
        ) (width 0) (fill yes))
    ) (tstamp 6bea8e39-c43d-4907-aaea-c67d0a9b165b))
  (pad "2" smd custom (at -1.749999 -3.634975 180) (size 1.7 1.7) (layers "F.Cu" "F.Mask")
    (zone_connect 2)
    (options (clearance outline) (anchor rect))
    (primitives
      (gr_circle (center 0 0.25) (end 0.5 0.25) (width 0) (fill yes))
      (gr_circle (center 0 -0.25) (end 0.5 -0.25) (width 0) (fill yes))
      (gr_poly (pts
          (xy 0 -0.75)
          (xy -0.5 -0.75)
          (xy -0.5 0.75)
          (xy 0 0.75)
        ) (width 0) (fill yes))
    ) (tstamp 9c3baa96-2fee-4537-9e8b-e039ef6abc2e))
  (pad "3" smd custom (at 0.250001 -6.834975) (size 1.7 1.7) (layers "F.Cu" "F.Mask")
    (zone_connect 2)
    (options (clearance outline) (anchor rect))
    (primitives
      (gr_circle (center 0 0.25) (end 0.5 0.25) (width 0) (fill yes))
      (gr_circle (center 0 -0.25) (end 0.5 -0.25) (width 0) (fill yes))
      (gr_poly (pts
          (xy 0 -0.75)
          (xy -0.5 -0.75)
          (xy -0.5 0.75)
          (xy 0 0.75)
        ) (width 0) (fill yes))
    ) (tstamp 71327825-0f49-4754-aad0-7b626e2e6b9d))
  (pad "4" smd custom (at -1.749999 -6.834975 180) (size 1.7 1.7) (layers "F.Cu" "F.Mask")
    (zone_connect 2)
    (options (clearance outline) (anchor rect))
    (primitives
      (gr_circle (center 0 0.25) (end 0.5 0.25) (width 0) (fill yes))
      (gr_circle (center 0 -0.25) (end 0.5 -0.25) (width 0) (fill yes))
      (gr_poly (pts
          (xy 0 -0.75)
          (xy -0.5 -0.75)
          (xy -0.5 0.75)
          (xy 0 0.75)
        ) (width 0) (fill yes))
    ) (tstamp 97814963-164a-4ddb-a590-5daa7e34c67f))
  (pad "5" smd custom (at 0.244976 -9.974976) (size 1.7 1.7) (layers "F.Cu" "F.Mask")
    (zone_connect 2)
    (options (clearance outline) (anchor rect))
    (primitives
      (gr_circle (center 0 0.25) (end 0.5 0.25) (width 0) (fill yes))
      (gr_circle (center 0 -0.25) (end 0.5 -0.25) (width 0) (fill yes))
      (gr_poly (pts
          (xy 0 -0.75)
          (xy -0.5 -0.75)
          (xy -0.5 0.75)
          (xy 0 0.75)
        ) (width 0) (fill yes))
    ) (tstamp e6248218-2239-451d-86fd-5c99852012ac))
  (pad "6" smd custom (at -1.755024 -9.974976 180) (size 1.7 1.7) (layers "F.Cu" "F.Mask")
    (zone_connect 2)
    (options (clearance outline) (anchor rect))
    (primitives
      (gr_circle (center 0 0.25) (end 0.5 0.25) (width 0) (fill yes))
      (gr_circle (center 0 -0.25) (end 0.5 -0.25) (width 0) (fill yes))
      (gr_poly (pts
          (xy 0 -0.75)
          (xy -0.5 -0.75)
          (xy -0.5 0.75)
          (xy 0 0.75)
        ) (width 0) (fill yes))
    ) (tstamp b38cf4ee-c59c-4ece-adb5-70a5889cadba))
  (pad "7" smd custom (at 0.280001 -13.124975) (size 1.7 1.7) (layers "F.Cu" "F.Mask")
    (zone_connect 2)
    (options (clearance outline) (anchor rect))
    (primitives
      (gr_circle (center 0 0.25) (end 0.5 0.25) (width 0) (fill yes))
      (gr_circle (center 0 -0.25) (end 0.5 -0.25) (width 0) (fill yes))
      (gr_poly (pts
          (xy 0 -0.75)
          (xy -0.5 -0.75)
          (xy -0.5 0.75)
          (xy 0 0.75)
        ) (width 0) (fill yes))
    ) (tstamp 64966964-790e-4f4b-b7d4-c63298ee2e14))
  (pad "8" smd custom (at -1.719999 -13.124975 180) (size 1.7 1.7) (layers "F.Cu" "F.Mask")
    (zone_connect 2)
    (options (clearance outline) (anchor rect))
    (primitives
      (gr_circle (center 0 0.25) (end 0.5 0.25) (width 0) (fill yes))
      (gr_circle (center 0 -0.25) (end 0.5 -0.25) (width 0) (fill yes))
      (gr_poly (pts
          (xy 0 -0.75)
          (xy -0.5 -0.75)
          (xy -0.5 0.75)
          (xy 0 0.75)
        ) (width 0) (fill yes))
    ) (tstamp 4884bfbc-1009-4ecf-a3ae-a5a7b1f7f329))
)
